{
    "code": 200,
    "message": "成功",
    "data": {
        "trademarkList": [
            {
                "tmId": 6,
                "tmName": "便宜"
            },
            {
                "tmId": 1,
                "tmName": "小熊"
            },
            {
                "tmId": 3,
                "tmName": "外衣"
            },
            {
                "tmId": 2,
                "tmName": "伞"
            },
            {
                "tmId": 7,
                "tmName": "三星"
            }
        ],
        "attrsList": [
            {
                "attrId": 106,
                "attrValueList": [
                    "安卓手机",
                    "苹果手机"
                ],
                "attrName": "手机一级"
            },
            {
                "attrId": 23,
                "attrValueList": [
                    "8G",
                    "4G",
                    "6G",
                    "12G",
                    "128G",
                    "3G"
                ],
                "attrName": "运行内存"
            },
            {
                "attrId": 107,
                "attrValueList": [
                    "小米",
                    "华为",
                    "苹果"
                ],
                "attrName": "二级手机"
            },
            {
                "attrId": 24,
                "attrValueList": [
                    "128G",
                    "256G",
                    "64G",
                    "1T",
                    "32G",
                    "512G"
                ],
                "attrName": "机身内存"
            },
            {
                "attrId": 111,
                "attrValueList": [
                    "麒麟990",
                    "骁龙845",
                    "骁龙439"
                ],
                "attrName": "CPU型号"
            },
            {
                "attrId": 112,
                "attrValueList": [
                    "6.55-6.64英寸",
                    "6.85-6.94英寸",
                    " 6.75-6.84英寸",
                    "6.0-6.24英寸",
                    "6.65-6.74英寸",
                    "6.95英寸及以上"
                ],
                "attrName": "屏幕尺寸"
            },
            {
                "attrId": 1302,
                "attrValueList": [
                    "xxxxxx"
                ],
                "attrName": "手机通讯16"
            },
            {
                "attrId": 1281,
                "attrValueList": [
                    "白色"
                ],
                "attrName": "color"
            },
            {
                "attrId": 1283,
                "attrValueList": [
                    "xxxxxxxxxxxxx"
                ],
                "attrName": "颜色"
            },
            {
                "attrId": 1286,
                "attrValueList": [
                    "左上方"
                ],
                "attrName": "摄像头位置"
            }
        ],
        "goodsList": [
            {
                "id": 15,
                "defaultImg": "http://47.93.148.192:8080/group1/M00/00/02/rBHu8l-sklaAbYPbAAHJf20K7J4980.jpg",
                "title": "华为 HUAWEI P40 麒麟990 5G SoC芯片 5000万超感知徕卡三摄 30倍数字变焦 8GB+128GB冰霜银全网通5G手机",
                "price": 4488.0,
                "createTime": null,
                "tmId": null,
                "tmName": null,
                "category1Id": null,
                "category1Name": null,
                "category2Id": null,
                "category2Name": null,
                "category3Id": null,
                "category3Name": null,
                "hotScore": 0,
                "attrs": null
            },
            {
                "id": 16,
                "defaultImg": "http://47.93.148.192:8080/group1/M00/00/02/rBHu8l-sklaALrngAAHGDqdpFtU741.jpg",
                "title": "华为 HUAWEI P40 麒麟990 5G SoC芯片 5000万超感知徕卡三摄 30倍数字变焦 8GB+128GB亮黑色全网通5G手机",
                "price": 4488.0,
                "createTime": null,
                "tmId": null,
                "tmName": null,
                "category1Id": null,
                "category1Name": null,
                "category2Id": null,
                "category2Name": null,
                "category3Id": null,
                "category3Name": null,
                "hotScore": 0,
                "attrs": null
            },
            {
                "id": 18,
                "defaultImg": null,
                "title": "vivo S10 Pro 5G手机 12GB+256GB 绮光焕彩 后置一亿像素 自然柔光人像 光致变色工艺 6nm旗舰芯片",
                "price": 2323.0,
                "createTime": null,
                "tmId": null,
                "tmName": null,
                "category1Id": null,
                "category1Name": null,
                "category2Id": null,
                "category2Name": null,
                "category3Id": null,
                "category3Name": null,
                "hotScore": 0,
                "attrs": null
            }
        ],
        "total": 74,
        "pageSize": 3,
        "pageNo": 1,
        "totalPages": 25
    },
    "ok": true
}